London Gang Network Analysis
…
Lets start with a simple question:

Which is the most central person w.r.t. the centrality measures?

To answer this question, we sort in a decreasing fashion the nodes by centralities as:

nodes %>%
  select(person,degree,betweenness,closeness,pr) %>%
  arrange(desc(degree))      # arrange by degree centrality (decreasing order)

## # A tibble: 54 x 5
##    person degree betweenness closeness     pr
##     <int>  <dbl>       <dbl>     <dbl>  <dbl>
##  1      1     50       226.    0.00962 0.0263
##  2      7     50       137.    0.00926 0.0247
##  3     12     50       207.    0.0103  0.0213
##  4     14     48        51.9   0.00813 0.0308
##  5     22     48        65.7   0.00840 0.0236
##  6     23     46        37.3   0.00813 0.0280
##  7     25     46       100.    0.00962 0.0258
##  8      2     44        73.8   0.00893 0.0250
##  9      3     44        31.9   0.00820 0.0260
## 10     10     44        60.8   0.00840 0.0266
## # ... with 44 more rows

nodes %>%
  select(person,degree,betweenness,closeness,pr) %>% 
  arrange(desc(betweenness)) # arrange by betweenness centrality (decreasing order)

## # A tibble: 54 x 5
##    person degree betweenness closeness     pr
##     <int>  <dbl>       <dbl>     <dbl>  <dbl>
##  1      1     50       226.    0.00962 0.0263
##  2     12     50       207.    0.0103  0.0213
##  3      7     50       137.    0.00926 0.0247
##  4      4     42       123.    0.00877 0.0262
##  5     20     30       117.    0.00730 0.0242
##  6     28     36       110.    0.00926 0.0197
##  7      5     38       105.    0.00917 0.0253
##  8     25     46       100.    0.00962 0.0258
##  9      9     42        83.9   0.00862 0.0249
## 10      2     44        73.8   0.00893 0.0250
## # ... with 44 more rows

nodes %>%
  select(person,degree,betweenness,closeness,pr) %>%
  arrange(desc(closeness))   # arrange by closeness centrality (decreasing order)

## # A tibble: 54 x 5
##    person degree betweenness closeness     pr
##     <int>  <dbl>       <dbl>     <dbl>  <dbl>
##  1     12     50      207.     0.0103  0.0213
##  2      1     50      226.     0.00962 0.0263
##  3     25     46      100.     0.00962 0.0258
##  4      7     50      137.     0.00926 0.0247
##  5     28     36      110.     0.00926 0.0197
##  6      5     38      105.     0.00917 0.0253
##  7      2     44       73.8    0.00893 0.0250
##  8      4     42      123.     0.00877 0.0262
##  9      9     42       83.9    0.00862 0.0249
## 10     29     34        8.04   0.00855 0.0215
## # ... with 44 more rows

nodes %>%
  select(person,degree,betweenness,closeness,pr) %>%
  arrange(desc(pr))          # arrange by pagerank centrality (decreasing order)

## # A tibble: 54 x 5
##    person degree betweenness closeness     pr
##     <int>  <dbl>       <dbl>     <dbl>  <dbl>
##  1     14     48        51.9   0.00813 0.0308
##  2     23     46        37.3   0.00813 0.0280
##  3     10     44        60.8   0.00840 0.0266
##  4      1     50       226.    0.00962 0.0263
##  5      4     42       123.    0.00877 0.0262
##  6      3     44        31.9   0.00820 0.0260
##  7     19     26        41.3   0.00781 0.0259
##  8     25     46       100.    0.00962 0.0258
##  9      5     38       105.    0.00917 0.0253
## 10      2     44        73.8   0.00893 0.0250
## # ... with 44 more rows
…
Finally, we are ready to answer the question. In order to give a more realistic answer, we filter only those nodes whose degree is greater or equal than \(5\), then we print the highest similar nodes:

# compute the joint similarities
joint_simil <- simil_edges %>% 
  left_join(nodes, c("from" = "person")) %>% 
  left_join(nodes, c("to" = "person")) %>%
  filter(degree.x >= 5, degree.y >= 5) %>%
  select(from, to, weight)
joint_simil # print the most similar nodes

## # A tibble: 1,127 x 3
##     from    to weight
##    <int> <int>  <dbl>
##  1    17    49  0.830
##  2    24    52  0.827
##  3    26    52  0.827
##  4     5     6  0.741
##  5    16    30  0.733
##  6     4     6  0.718
##  7     8    22  0.713
##  8    34    35  0.709
##  9    34    36  0.702
## 10     9    21  0.671
## # ... with 1,117 more rows
…
damping = 0.15                # damping factor
I <- diag(damping, vcount(g)) # identity matrix (with the damping factor on its diagonal)
Ad <- A + I                   # A + I
p <- power(Ad, 6)$vector      # compute power
V(g)$power <- p               # assign power to the nodes

nodes <- nodes %>%            # mutate the tibble nodes adding the new attribute power
  mutate(power = p)

nodes %>%                     # sort the nodes in decreasing order by their pagerank centrality
  select(person, pr) %>%
  arrange(desc(pr))

## # A tibble: 54 x 2
##    person     pr
##     <int>  <dbl>
##  1     14 0.0308
##  2     23 0.0280
##  3     10 0.0266
##  4      1 0.0263
##  5      4 0.0262
##  6      3 0.0260
##  7     19 0.0259
##  8     25 0.0258
##  9      5 0.0253
## 10      2 0.0250
## # ... with 44 more rows

nodes %>%                     # sort the nodes in decreasing order by their power score
  select(person, power) %>%
  arrange(desc(power))

## # A tibble: 54 x 2
##    person power
##     <int> <dbl>
##  1     14  23.8
##  2     19  19.1
##  3     10  17.9
##  4      4  15.8
##  5     20  15.6
##  6      2  14.8
##  7      5  13.3
##  8      9  12.9
##  9     23  12.9
## 10      3  12.6
## # ... with 44 more rows
…
